<svg width="29" height="27" viewBox="0 0 29 27" fill="none" xmlns="http://www.w3.org/2000/svg">
<path d="M0.543931 20.4997C-0.998944 23.1646 0.924065 26.5 4.00343 26.5H24.8514C27.9308 26.5 29.8538 23.1646 28.3109 20.4997L17.8869 2.49459C16.3473 -0.164862 12.5076 -0.164862 10.9679 2.49459L0.543931 20.4997ZM16.0054 20.1882C16.0054 21.0597 15.2989 21.7662 14.4274 21.7662C13.556 21.7662 12.8495 21.0597 12.8495 20.1882C12.8495 19.3168 13.556 18.6103 14.4274 18.6103C15.2989 18.6103 16.0054 19.3168 16.0054 20.1882ZM16.0054 13.8765C16.0054 14.7479 15.2989 15.4544 14.4274 15.4544C13.556 15.4544 12.8495 14.7479 12.8495 13.8765V10.7206C12.8495 9.84909 13.556 9.14262 14.4274 9.14262C15.2989 9.14262 16.0054 9.84909 16.0054 10.7206V13.8765Z" fill="#F9FBFC"/>
</svg>
